[gd_scene load_steps=2 format=2]

[ext_resource path="res://kerno/menuo/skriptoj/tabulo_komunikado.gd" type="Script" id=1]

[node name="UI" type="Control"]
anchor_right = 1.0
anchor_bottom = 1.0
mouse_filter = 2
script = ExtResource( 1 )
__meta__ = {
"_edit_use_anchors_": false
}

[node name="komunikado" type="Label" parent="."]
anchor_right = 1.0
anchor_bottom = 1.0
offset_left = 1.68176
offset_top = 1.68176
offset_right = 1.68176
offset_bottom = 1.68176
theme_override_colors/font_color = Color( 0.478431, 0.478431, 0.588235, 1 )
theme_override_colors/font_outline_color = Color( 0.870588, 0.141176, 0.141176, 1 )
align = 1
valign = 1
__meta__ = {
"_edit_use_anchors_": false
}

[node name="tempumilo" type="Timer" parent="."]

[connection signal="timeout" from="tempumilo" to="." method="_on_tempumilo_timeout"]
