[gd_scene load_steps=4 format=2]

[ext_resource path="res://blokoj/kosmostacioj/resursoj/CapKosmostacio/sounds/Sound_forcefield.ogg" type="AudioStream" id=1]
[ext_resource path="res://blokoj/kosmostacioj/resursoj/CapKosmostacio/forcefield/forcefieldmaterial.tres" type="Material" id=2]

[sub_resource type="PlaneMesh" id=1]

[node name="forcefield" type="MeshInstance3D"]
transform = Transform3D( -35, 8.74228e-08, 4.20351e-14, 0, -4.37114e-08, 11, 3.0598e-06, 1, 4.80825e-07, 0, 20, -79.3723 )
mesh = SubResource( 1 )
material/0 = ExtResource( 2 )

[node name="AudioStreamPlayer3D" type="AudioStreamPlayer3D" parent="."]
transform = Transform3D( 0.0285714, -1.77636e-15, 0, 0, 1, 3.55271e-14, 0, 0, 0.0909091, 0, 0, 0 )
stream = ExtResource( 1 )
volume_db = 30.0
autoplay = true
max_distance = 20.0

[node name="AudioStreamPlayer3D2" type="AudioStreamPlayer3D" parent="."]
transform = Transform3D( 0.0285714, -1.77636e-15, 0, 0, 1, 3.55271e-14, 0, 0, 0.0909091, 0.617406, 0, 0 )
stream = ExtResource( 1 )
volume_db = 30.0
autoplay = true
max_distance = 20.0

[node name="AudioStreamPlayer3D3" type="AudioStreamPlayer3D" parent="."]
transform = Transform3D( 0.0285714, -1.77636e-15, 0, 0, 1, 3.55271e-14, 0, 0, 0.0909091, -0.649104, 0, 0 )
stream = ExtResource( 1 )
volume_db = 30.0
autoplay = true
max_distance = 20.0
